…
The first element in our list is not what we want; what about the second? 



```r
table %>% pluck(2)
```

```
## # A tibble: 746 × 6
##    Season `Guest star`             `Role(s)`  No.   `Prod. code` `Episode title`
##     <int> <chr>                    <chr>      <chr> <chr>        <chr>          
##  1     21 Matt Groening            Himself    442–… LABF13       "\"Homer the W…
##  2     21 Kevin Michael Richardson Security … 442–… LABF13       "\"Homer the W…
##  3     21 Seth Rogen               Lyle McCa… 442–… LABF13       "\"Homer the W…
##  4     21 Marcia Wallace           Edna Krab… 443–… LABF15       "\"Bart Gets a…
##  5     21 Chuck Liddell            Himself    444–… LABF16       "\"The Great W…
##  6     21 Marcia Wallace           Edna Krab… 444–… LABF16       "\"The Great W…
##  7     21 Marcia Wallace           Edna Krab… 445–… LABF14       "\"Treehouse o…
##  8     21 Marcia Wallace           Edna Krab… 446–… LABF17       "\"The Devil W…
##  9     21 Jonah Hill               Andy Hami… 447–… LABF18       "\"Pranks and …
## 10     21 Marcia Wallace           Edna Krab… 447–… LABF18       "\"Pranks and …
## # ℹ 736 more rows
```
…
