Confounds | Methods of Political Analysis
…
Remember that in an experiment, we randomize assignment to some treatment, measure an outcome we care about, and compare whether the units that got the treatment have better or worse results on the outcome than the group that didn’t get the treatment.

We can simulate a fake experiment (on rats) using R:

rats = tibble(rat_id = 1:200, 
              vaccine = sample(c(1, 0), size = 200, 
                               replace = TRUE), 
              social = sample(c(1, 0), size = 200, 
                               replace = TRUE)) %>% 
  mutate(covid_levels = -2*vaccine + 3*social + rnorm(200))

rats

## # A tibble: 200 × 4
##    rat_id vaccine social covid_levels
##     <int>   <dbl>  <dbl>        <dbl>
##  1      1       1      0       -2.35 
##  2      2       0      1        3.74 
##  3      3       1      0        1.38 
##  4      4       1      0       -1.82 
##  5      5       1      1        1.90 
##  6      6       1      1        2.15 
##  7      7       1      0       -1.60 
##  8      8       1      1        0.923
##  9      9       1      0       -2.90 
## 10     10       0      1        4.34 
## # ℹ 190 more rows
…
