Bootstrap | Methods of Political Analysis
…
Using the infer package

Bootstrapping averages

Let’s do this with the infer package, to estimate the number of kids the average American has.

gss_sm %>%
  # specify the outcome variable
  specify(response = childs) %>%
  # generate the bootstrapped samples
  generate(reps = 1000, type = "bootstrap")

## Response: childs (numeric)
## # A tibble: 2,859,000 × 2
## # Groups:   replicate [1,000]
##    replicate childs
##        <int>  <dbl>
##  1         1      0
##  2         1      2
##  3         1      0
##  4         1      3
##  5         1      4
##  6         1      1
##  7         1      0
##  8         1      5
##  9         1      0
## 10         1      0
## # … with 2,858,990 more rows

Notice how each of the 1,000 bootstrapped samples has the same number of observations as the original dataset.

The above is equivalent to doing this 1,000 times:

gss_sm %>%
  # subset down to just kids
  select(childs) %>%
  # sample with replacement, same size as original dataset
  sample_n(nrow(gss_sm), replace = TRUE)

## # A tibble: 2,867 × 1
##    childs
##     <dbl>
##  1      5
##  2      0
##  3      2
##  4      0
##  5      1
##  6      0
##  7      3
##  8      1
##  9      0
## 10      1
## # … with 2,857 more rows

We can then calculate the average number of kids in each of those 1,000 bootstraps:

boot_kids = gss_sm %>%
  # specify the outcome variable
  specify(response = childs) %>%
  # generate the bootstrapped samples
  generate(reps = 1000, type = "bootstrap") %>%
  # find the average # of kids in each bootstrap sample
  calculate(stat = "mean")

boot_kids

## # A tibble: 1,000 × 2
##    replicate  stat
##        <int> <dbl>
##  1         1  1.83
##  2         2  1.88
##  3         3  1.84
##  4         4  1.86
##  5         5  1.79
##  6         6  1.90
##  7         7  1.86
##  8         8  1.82
##  9         9  1.86
## 10        10  1.88
## # … with 990 more rows
…
# permutation based hypothesis testing
null_biceps = fake %>%
  # specify is now Y ~ X
  specify(conservative ~ bicep) %>%
  # define null hypothesis: "independence"
  hypothesize(null = "independence") %>%
  # now we do "permute" instead of bootstrap
  generate(reps = 1000, type = "permute") %>%
  # "slope" is another word for coefficient
  calculate(stat = "slope")

null_biceps

## # A tibble: 1,000 × 2
##    replicate   stat
##        <int>  <dbl>
##  1         1  3.60 
##  2         2  3.28 
##  3         3  1.73 
##  4         4  0.390
##  5         5  2.15 
##  6         6  5.20 
##  7         7 -5.17 
##  8         8 -4.43 
##  9         9 -2.34 
## 10        10  1.15 
## # … with 990 more rows
…
  return(ci)
}

gss_sm %>%
  select(childs, age) %>%
  rep_sample_n(size = 200, reps = 100, replace = FALSE) %>%
  nest() %>%
  mutate(cis = map(data, get_ci))

## # A tibble: 100 × 3
## # Groups:   replicate [100]
##    replicate data               cis             
##        <int> <list>             <list>          
##  1         1 <tibble [200 × 2]> <tibble [1 × 2]>
##  2         2 <tibble [200 × 2]> <tibble [1 × 2]>
##  3         3 <tibble [200 × 2]> <tibble [1 × 2]>
##  4         4 <tibble [200 × 2]> <tibble [1 × 2]>
##  5         5 <tibble [200 × 2]> <tibble [1 × 2]>
##  6         6 <tibble [200 × 2]> <tibble [1 × 2]>
##  7         7 <tibble [200 × 2]> <tibble [1 × 2]>
##  8         8 <tibble [200 × 2]> <tibble [1 × 2]>
##  9         9 <tibble [200 × 2]> <tibble [1 × 2]>
## 10        10 <tibble [200 × 2]> <tibble [1 × 2]>
## # … with 90 more rows
…
