…
<img src="/class/data-tidy_files/figure-html/unnamed-chunk-1-1.png" width="672" />

Here’s another example, using the `masculinity survey` from `fivethirtyeight`.

``` r
# different dataset on masculinity
masculinity_survey
```

    ## # A tibble: 189 × 12
    ##    question  response overall age_18_34 age_35_64 age_65_over white_yes white_no
    ##    <fct>     <fct>      <dbl>     <dbl>     <dbl>       <dbl>     <dbl>    <dbl>
    ##  1 "In gene… Very ma…    0.37      0.29      0.42        0.37      0.34     0.44
    ##  2 "In gene… Somewha…    0.46      0.47      0.46        0.47      0.5      0.39
    ##  3 "In gene… Not ver…    0.11      0.13      0.09        0.13      0.11     0.11
    ##  4 "In gene… Not at …    0.05      0.1       0.02        0.03      0.04     0.06
    ##  5 "In gene… No answ…    0.01      0         0.01        0.01      0.01     0   
    ##  6 "How imp… Very im…    0.16      0.18      0.17        0.13      0.11     0.26
    ##  7 "How imp… Somewha…    0.37      0.38      0.37        0.32      0.38     0.35
    ##  8 "How imp… Not too…    0.28      0.18      0.31        0.37      0.32     0.2 
    ##  9 "How imp… Not at …    0.18      0.26      0.15        0.18      0.18     0.19
    ## 10 "How imp… No answ…    0         0         0.01        0         0        0   
    ## # ℹ 179 more rows
    ## # ℹ 4 more variables: children_yes <dbl>, children_no <dbl>,
    ## #   straight_yes <dbl>, straight_no <dbl>
…
<img src="/class/data-tidy_files/figure-html/unnamed-chunk-10-1.png" width="672" />

### fct_reorder

Instead of explicitly telling R how we want to order a factor, we can instead use another variable in the dataset to determine the order.

Look at the example below, using the `starwars` dataset:

``` r
# starwars example
starwars
```

    ## # A tibble: 87 × 14
    ##    name     height  mass hair_color skin_color eye_color birth_year sex   gender
    ##    <chr>     <int> <dbl> <chr>      <chr>      <chr>          <dbl> <chr> <chr> 
    ##  1 Luke Sk…    172    77 blond      fair       blue            19   male  mascu…
    ##  2 C-3PO       167    75 <NA>       gold       yellow         112   none  mascu…
    ##  3 R2-D2        96    32 <NA>       white, bl… red             33   none  mascu…
    ##  4 Darth V…    202   136 none       white      yellow          41.9 male  mascu…
    ##  5 Leia Or…    150    49 brown      light      brown           19   fema… femin…
    ##  6 Owen La…    178   120 brown, gr… light      blue            52   male  mascu…
    ##  7 Beru Wh…    165    75 brown      light      blue            47   fema… femin…
    ##  8 R5-D4        97    32 <NA>       white, red red             NA   none  mascu…
    ##  9 Biggs D…    183    84 black      light      brown           24   male  mascu…
    ## 10 Obi-Wan…    182    77 auburn, w… fair       blue-gray       57   male  mascu…
    ## # ℹ 77 more rows
    ## # ℹ 5 more variables: homeworld <chr>, species <chr>, films <list>,
    ## #   vehicles <list>, starships <list>
…
