How to scrape websites | Methods of Political Analysis
…
We need to look at the elements in that list to figure out which of the 13 tables is ours. To look at a specific element in a list, we can use the pluck() function, like so:

table %>% pluck(1)

## # A tibble: 1 × 1
##   X1                                                                            
##   <chr>                                                                         
## 1 Seasons: 1 2 3 4 5 6 7 8 9 10 11 12 13 14 15 16 17 18 • Movie • 19 20 21 22 2…

The first element in our list is not what we want; what about the second?

table %>% pluck(2)

## # A tibble: 676 × 6
##    Season `Guest star`             `Role(s)`  No.   `Prod. code` `Episode title`
##     <int> <chr>                    <chr>      <chr> <chr>        <chr>          
##  1     21 Matt Groening            Himself    442–… LABF13       "\"Homer the W…
##  2     21 Kevin Michael Richardson Security … 442–… LABF13       "\"Homer the W…
##  3     21 Seth Rogen               Lyle McCa… 442–… LABF13       "\"Homer the W…
##  4     21 Marcia Wallace           Edna Krab… 443–… LABF15       "\"Bart Gets a…
##  5     21 Chuck Liddell            Himself    444–… LABF16       "\"The Great W…
##  6     21 Marcia Wallace           Edna Krab… 444–… LABF16       "\"The Great W…
##  7     21 Marcia Wallace           Edna Krab… 445–… LABF14       "\"Treehouse o…
##  8     21 Marcia Wallace           Edna Krab… 446–… LABF17       "\"The Devil W…
##  9     21 Jonah Hill               Andy Hami… 447–… LABF18       "\"Pranks and …
## 10     21 Marcia Wallace           Edna Krab… 447–… LABF18       "\"Pranks and …
## # … with 666 more rows
…
